id;first;last;addr
1;Assimilated;RSS;port
2;Tasty flexibility;content;Agent tertiary
3;Outdoors parsing;Clothing;SCSI
4;Personal Loan Account Security New Jersey;monitoring navigate Ergonomic Soft Pizza;quantifying Thailand
5;Agent;PNG Personal Loan Account revolutionary;Soap North Carolina
6;array Sleek synthesizing;synthesizing;Markets
7;leading edge Canadian Dollar payment;primary e-business;extend Engineer
8;transparent full-range payment;Nevada;magenta deposit Quetzal
9;array;Wells initiative;approach
10;synthesizing;Pizza;Bedfordshire bypass
